{
    "server": {
        "host": "localhost",
        "port": "50001"
    },
    "theme": {
        "action": "magenta",
        "conn": "yellow",
        "db": "cyan",
        "dark": "grey",
        "bad": "red",
        "good": "green",
        "status": "blue"
    },
    "displayName": "Icarus",
    "name": "icarus",
    "serials": [
        "/dev/cu.usbserial-A9OZ35PX",
        "/dev/cu.usbserial-A9UTHJFN"
    ]
}